<svg width="440" height="250" viewBox="0 0 440 250" fill="none" xmlns="http://www.w3.org/2000/svg">
<g clip-path="url(#clip0)">
<rect width="440" height="250" rx="12" fill="url(#paint0_linear)"/>
<path d="M0 192.731C0 192.731 114.81 135.623 363.787 157.28C612.763 178.937 601.744 74.6676 555 14.4798L10.2221 0L0 192.731Z" transform="translate(-72.9918 6.70502) rotate(-8.43674)" fill="white" fill-opacity="0.1"/>
<path d="M37.2812 55.9688C37.2812 55.1562 37.0312 54.6146 36.5312 54.3438C36.0521 54.0729 35.3438 53.9375 34.4062 53.9375H19.9062V51.6875H34.4062C37.8229 51.6875 39.5312 53.1146 39.5312 55.9688C39.5312 57.5729 39.0625 58.7292 38.125 59.4375C37.1875 60.1458 35.9479 60.5 34.4062 60.5H19.9062V58.25H34.4062C36.3229 58.25 37.2812 57.4896 37.2812 55.9688ZM18.6562 74H16.4062V35.75H34.4062C35.8229 35.75 37.0312 36.1875 38.0312 37.0625C39.0312 37.9167 39.5312 38.9896 39.5312 40.2812C39.5312 41.9896 39.0625 43.2292 38.125 44C37.1875 44.75 35.9479 45.125 34.4062 45.125H19.9062V42.875H34.4062C36.3229 42.875 37.2812 42.0104 37.2812 40.2812C37.2812 39.5729 37.0104 39.0208 36.4688 38.625C35.9271 38.2083 35.2396 38 34.4062 38H18.6562V74ZM19.9062 47.375H34.4062C36.4688 47.375 38.2083 46.7604 39.625 45.5312C41.0625 44.2812 41.7812 42.5312 41.7812 40.2812C41.7812 38.4688 41.0312 36.8854 39.5312 35.5312C38.0521 34.1771 36.3438 33.5 34.4062 33.5H14.1562V74H11.9062V31.25H34.4062C36.9688 31.25 39.2083 32.1562 41.125 33.9688C43.0625 35.7604 44.0312 37.8646 44.0312 40.2812C44.0312 42.1771 43.5833 43.8333 42.6875 45.25C41.8125 46.6667 40.625 47.7604 39.125 48.5312C42.3958 49.6979 44.0312 52.0729 44.0312 55.6562C44.0312 58.4896 43.0938 60.7604 41.2188 62.4688C39.3438 64.1562 37.0729 65 34.4062 65H19.9062V62.75H34.4062C36.4688 62.75 38.2083 62.1354 39.625 60.9062C41.0625 59.6562 41.7812 57.9062 41.7812 55.6562C41.7812 54.1354 41.2396 52.7917 40.1562 51.625C39.0729 50.4583 37.4792 49.7812 35.375 49.5938C35.1667 49.6146 34.8438 49.625 34.4062 49.625H19.9062V47.375ZM48.5312 40.2812C48.5312 43.1979 47.5 45.8333 45.4375 48.1875C47.5 50.4792 48.5312 52.9688 48.5312 55.6562C48.5312 58.2604 47.875 60.6354 46.5625 62.7812C45.2708 64.9062 43.5417 66.5625 41.375 67.75C39.2292 68.9167 36.9062 69.5 34.4062 69.5H19.9062V67.25H34.4062C37.6562 67.25 40.4479 66.1667 42.7812 64C45.1146 61.8125 46.2812 59.0312 46.2812 55.6562C46.2812 54.4479 45.9688 53.1146 45.3438 51.6562C44.7396 50.1771 43.8958 49.0521 42.8125 48.2812C45.125 46.1146 46.2812 43.4479 46.2812 40.2812C46.2812 37.2396 45.0938 34.6042 42.7188 32.375C40.3438 30.125 37.5729 29 34.4062 29H9.65625V74H7.40625V26.75H34.4062C36.8854 26.75 39.2083 27.3646 41.375 28.5938C43.5625 29.8021 45.3021 31.4583 46.5938 33.5625C47.8854 35.6458 48.5312 37.8854 48.5312 40.2812ZM48 48.3125C49.8542 45.8333 50.7812 43.1562 50.7812 40.2812C50.7812 37.4688 50.0312 34.8542 48.5312 32.4375C47.0521 30 45.0521 28.0729 42.5312 26.6562C40.0104 25.2188 37.3021 24.5 34.4062 24.5H5.15625V74H2.90625V22.25H34.4062C37.6979 22.25 40.7708 23.0625 43.625 24.6875C46.5 26.3125 48.7812 28.5208 50.4688 31.3125C52.1771 34.0833 53.0312 37.0729 53.0312 40.2812C53.0312 43.3438 52.1667 46.0312 50.4375 48.3438C52.1667 50.7396 53.0312 53.1771 53.0312 55.6562C53.0312 58.4479 52.5312 61.0104 51.5312 63.3438C50.5312 65.6562 49.1771 67.5833 47.4688 69.125C45.7812 70.6667 43.8125 71.8646 41.5625 72.7188C39.3125 73.5729 36.9271 74 34.4062 74H19.9062V71.75H34.4062C36.5938 71.75 38.6875 71.3438 40.6875 70.5312C42.6875 69.6979 44.4271 68.5729 45.9062 67.1562C47.3854 65.7396 48.5625 64.0312 49.4375 62.0312C50.3333 60.0312 50.7812 57.9062 50.7812 55.6562C50.7812 54.6562 50.5417 53.4583 50.0625 52.0625C49.6042 50.6458 48.9167 49.3958 48 48.3125ZM80.4375 58.8125L81.3438 56.5625H89.0312L89.9375 58.8125H80.4375ZM78.6875 63.3125L79.5625 61.0625H90.7812L91.75 63.3125H78.6875ZM76.9375 67.8125L77.8125 65.5625H92.5625L93.5 67.8125H76.9375ZM58.6562 74H56.2188L76.6875 22.25H79.125L99.5625 74H97.1562L77.9062 25.2812L58.6562 74ZM78.1875 30.625L79.4688 33.5L63.4688 74H61.0625L78.1875 30.625ZM80.6875 36.5625L81.875 39.6562L68.3438 74H65.9062L80.6875 36.5625ZM83.0625 42.75L84.25 45.9062L73.1562 74H70.75L83.0625 42.75ZM114.094 74H111.656L91.2188 22.25H93.625L114.094 74ZM88.7812 22.25L109.25 74H106.844L86.375 22.25H88.7812ZM83.9375 22.25L104.406 74H101.969L81.5312 22.25H83.9375ZM154.781 49.0938L152.531 45.375V22.25H154.781V49.0938ZM159.281 56.4688L157.031 52.6875V22.25H159.281V56.4688ZM163.781 63.9375L161.531 60.125V22.25H163.781V63.9375ZM131.531 47.1562L133.781 50.875V74H131.531V47.1562ZM127.031 39.7812L129.281 43.5625V74H127.031V39.7812ZM122.531 32.3125L124.781 36.125V74H122.531V32.3125ZM123.312 22.25H125.938L157.75 74H155.125L123.312 22.25ZM128.625 22.25H131.281L163.062 74H160.375L128.625 22.25ZM133.906 22.25H136.531L166.031 70.3438V22.25H168.281V74C168.281 74 167.396 74 165.625 74L133.906 22.25ZM120.281 25.9062V74H118.031V22.25C118.031 22.25 118.927 22.25 120.719 22.25L152.438 74H149.844L120.281 25.9062Z" transform="translate(26 6)" fill="#FFC700"/>
<g filter="url(#filter0_dd)">
<path d="M30.4877 20.7422H34.6478V9.33984C34.1009 9.46484 33.5736 9.62891 33.0658 9.83203C32.5658 10.0352 32.1087 10.2812 31.6947 10.5703L29.8666 7.95703C30.5384 7.53516 31.222 7.17969 31.9173 6.89062C32.6205 6.59375 33.3275 6.35938 34.0384 6.1875C34.7572 6.00781 35.4759 5.87891 36.1947 5.80078C36.9212 5.72266 37.6439 5.68359 38.3627 5.68359L38.3509 5.70703H38.3627V20.7422H42.3353V24H30.4877V20.7422ZM48.0512 20.8125L54.5083 16.3828C55.477 15.7188 56.27 15.1406 56.8872 14.6484C57.5044 14.1562 57.9887 13.7188 58.3403 13.3359C58.6919 12.9453 58.9341 12.5938 59.0669 12.2812C59.1997 11.9688 59.2661 11.6562 59.2661 11.3438C59.2661 10.9844 59.1919 10.6484 59.0434 10.3359C58.895 10.0234 58.6606 9.75 58.3403 9.51562C58.0278 9.28125 57.6216 9.09766 57.1216 8.96484C56.6294 8.83203 56.0395 8.76562 55.352 8.76562C54.352 8.76562 53.3559 8.90625 52.3637 9.1875C51.3716 9.46875 50.3598 9.91797 49.3286 10.5352L47.6177 7.72266C48.7661 7.01172 50.0083 6.45703 51.3442 6.05859C52.688 5.66016 54.0981 5.46094 55.5747 5.46094C56.8637 5.46094 57.9809 5.61719 58.9262 5.92969C59.8794 6.23438 60.6645 6.65234 61.2817 7.18359C61.9067 7.71484 62.3716 8.33203 62.6762 9.03516C62.9809 9.73828 63.1333 10.4844 63.1333 11.2734C63.1333 11.8828 63.0317 12.4648 62.8286 13.0195C62.6255 13.5742 62.27 14.1484 61.7622 14.7422C61.2544 15.3359 60.5669 15.9766 59.6997 16.6641C58.8403 17.3438 57.7544 18.1172 56.4419 18.9844L53.77 20.7422H63.8012V24H48.0512V20.8125ZM71.6383 19.6406C72.5602 20.0938 73.5445 20.4258 74.5914 20.6367C75.6461 20.8398 76.6734 20.9414 77.6734 20.9414C78.5641 20.9414 79.3336 20.8711 79.982 20.7305C80.6305 20.582 81.1656 20.3828 81.5875 20.1328C82.0094 19.8828 82.3219 19.5859 82.525 19.2422C82.7281 18.8984 82.8297 18.5273 82.8297 18.1289C82.8297 17.5898 82.6461 17.1094 82.2789 16.6875C81.9117 16.2578 81.3531 15.9375 80.6031 15.7266C79.8609 15.5078 78.9195 15.4219 77.7789 15.4688C76.6461 15.5156 75.3102 15.7383 73.7711 16.1367L73.7828 13.3945L80.6266 8.94141H70.9352V5.68359H85.5953V8.87109L79.5719 12.6914C80.6734 12.6914 81.6578 12.832 82.525 13.1133C83.3922 13.3945 84.1227 13.7812 84.7164 14.2734C85.3102 14.7656 85.7633 15.3477 86.0758 16.0195C86.3883 16.6914 86.5445 17.4141 86.5445 18.1875C86.5445 19.1016 86.3414 19.9336 85.9352 20.6836C85.5367 21.4258 84.9547 22.0625 84.1891 22.5938C83.4234 23.1172 82.4859 23.5234 81.3766 23.8125C80.275 24.1016 79.025 24.2461 77.6266 24.2461C76.1422 24.2461 74.7711 24.0898 73.5133 23.7773C72.2555 23.457 71.0602 23.0156 69.9273 22.4531L71.6383 19.6406ZM93.5495 16.8281L104.26 5.68359H107.975V16.8281H111.925V20.0859H107.975V24H104.26V20.0859H93.5261L93.5495 16.8281ZM104.26 16.8281V10.3828L98.0027 16.8281H104.26ZM128.911 20.7422H133.071V9.33984C132.524 9.46484 131.997 9.62891 131.489 9.83203C130.989 10.0352 130.532 10.2812 130.118 10.5703L128.29 7.95703C128.962 7.53516 129.645 7.17969 130.341 6.89062C131.044 6.59375 131.751 6.35938 132.462 6.1875C133.181 6.00781 133.899 5.87891 134.618 5.80078C135.345 5.72266 136.067 5.68359 136.786 5.68359L136.774 5.70703H136.786V20.7422H140.759V24H128.911V20.7422ZM146.475 20.8125L152.932 16.3828C153.9 15.7188 154.693 15.1406 155.311 14.6484C155.928 14.1562 156.412 13.7188 156.764 13.3359C157.115 12.9453 157.357 12.5938 157.49 12.2812C157.623 11.9688 157.69 11.6562 157.69 11.3438C157.69 10.9844 157.615 10.6484 157.467 10.3359C157.318 10.0234 157.084 9.75 156.764 9.51562C156.451 9.28125 156.045 9.09766 155.545 8.96484C155.053 8.83203 154.463 8.76562 153.775 8.76562C152.775 8.76562 151.779 8.90625 150.787 9.1875C149.795 9.46875 148.783 9.91797 147.752 10.5352L146.041 7.72266C147.19 7.01172 148.432 6.45703 149.768 6.05859C151.111 5.66016 152.522 5.46094 153.998 5.46094C155.287 5.46094 156.404 5.61719 157.35 5.92969C158.303 6.23438 159.088 6.65234 159.705 7.18359C160.33 7.71484 160.795 8.33203 161.1 9.03516C161.404 9.73828 161.557 10.4844 161.557 11.2734C161.557 11.8828 161.455 12.4648 161.252 13.0195C161.049 13.5742 160.693 14.1484 160.186 14.7422C159.678 15.3359 158.99 15.9766 158.123 16.6641C157.264 17.3438 156.178 18.1172 154.865 18.9844L152.193 20.7422H162.225V24H146.475V20.8125ZM170.062 19.6406C170.984 20.0938 171.968 20.4258 173.015 20.6367C174.07 20.8398 175.097 20.9414 176.097 20.9414C176.987 20.9414 177.757 20.8711 178.405 20.7305C179.054 20.582 179.589 20.3828 180.011 20.1328C180.433 19.8828 180.745 19.5859 180.948 19.2422C181.152 18.8984 181.253 18.5273 181.253 18.1289C181.253 17.5898 181.07 17.1094 180.702 16.6875C180.335 16.2578 179.777 15.9375 179.027 15.7266C178.284 15.5078 177.343 15.4219 176.202 15.4688C175.07 15.5156 173.734 15.7383 172.195 16.1367L172.206 13.3945L179.05 8.94141H169.359V5.68359H184.019V8.87109L177.995 12.6914C179.097 12.6914 180.081 12.832 180.948 13.1133C181.816 13.3945 182.546 13.7812 183.14 14.2734C183.734 14.7656 184.187 15.3477 184.499 16.0195C184.812 16.6914 184.968 17.4141 184.968 18.1875C184.968 19.1016 184.765 19.9336 184.359 20.6836C183.96 21.4258 183.378 22.0625 182.612 22.5938C181.847 23.1172 180.909 23.5234 179.8 23.8125C178.698 24.1016 177.448 24.2461 176.05 24.2461C174.566 24.2461 173.195 24.0898 171.937 23.7773C170.679 23.457 169.484 23.0156 168.351 22.4531L170.062 19.6406ZM191.973 16.8281L202.684 5.68359H206.399V16.8281H210.348V20.0859H206.399V24H202.684V20.0859H191.95L191.973 16.8281ZM202.684 16.8281V10.3828L196.426 16.8281H202.684ZM227.335 20.7422H231.495V9.33984C230.948 9.46484 230.42 9.62891 229.913 9.83203C229.413 10.0352 228.956 10.2812 228.542 10.5703L226.713 7.95703C227.385 7.53516 228.069 7.17969 228.764 6.89062C229.467 6.59375 230.174 6.35938 230.885 6.1875C231.604 6.00781 232.323 5.87891 233.042 5.80078C233.768 5.72266 234.491 5.68359 235.21 5.68359L235.198 5.70703H235.21V20.7422H239.182V24H227.335V20.7422ZM244.898 20.8125L251.355 16.3828C252.324 15.7188 253.117 15.1406 253.734 14.6484C254.351 14.1562 254.836 13.7188 255.187 13.3359C255.539 12.9453 255.781 12.5938 255.914 12.2812C256.047 11.9688 256.113 11.6562 256.113 11.3438C256.113 10.9844 256.039 10.6484 255.89 10.3359C255.742 10.0234 255.507 9.75 255.187 9.51562C254.875 9.28125 254.468 9.09766 253.968 8.96484C253.476 8.83203 252.886 8.76562 252.199 8.76562C251.199 8.76562 250.203 8.90625 249.211 9.1875C248.218 9.46875 247.207 9.91797 246.175 10.5352L244.465 7.72266C245.613 7.01172 246.855 6.45703 248.191 6.05859C249.535 5.66016 250.945 5.46094 252.422 5.46094C253.711 5.46094 254.828 5.61719 255.773 5.92969C256.726 6.23438 257.511 6.65234 258.129 7.18359C258.754 7.71484 259.218 8.33203 259.523 9.03516C259.828 9.73828 259.98 10.4844 259.98 11.2734C259.98 11.8828 259.879 12.4648 259.675 13.0195C259.472 13.5742 259.117 14.1484 258.609 14.7422C258.101 15.3359 257.414 15.9766 256.547 16.6641C255.687 17.3438 254.601 18.1172 253.289 18.9844L250.617 20.7422H260.648V24H244.898V20.8125ZM268.485 19.6406C269.407 20.0938 270.391 20.4258 271.438 20.6367C272.493 20.8398 273.52 20.9414 274.52 20.9414C275.411 20.9414 276.18 20.8711 276.829 20.7305C277.477 20.582 278.013 20.3828 278.434 20.1328C278.856 19.8828 279.169 19.5859 279.372 19.2422C279.575 18.8984 279.677 18.5273 279.677 18.1289C279.677 17.5898 279.493 17.1094 279.126 16.6875C278.759 16.2578 278.2 15.9375 277.45 15.7266C276.708 15.5078 275.766 15.4219 274.626 15.4688C273.493 15.5156 272.157 15.7383 270.618 16.1367L270.63 13.3945L277.473 8.94141H267.782V5.68359H282.442V8.87109L276.419 12.6914C277.52 12.6914 278.505 12.832 279.372 13.1133C280.239 13.3945 280.97 13.7812 281.563 14.2734C282.157 14.7656 282.61 15.3477 282.923 16.0195C283.235 16.6914 283.391 17.4141 283.391 18.1875C283.391 19.1016 283.188 19.9336 282.782 20.6836C282.384 21.4258 281.802 22.0625 281.036 22.5938C280.27 23.1172 279.333 23.5234 278.223 23.8125C277.122 24.1016 275.872 24.2461 274.473 24.2461C272.989 24.2461 271.618 24.0898 270.36 23.7773C269.102 23.457 267.907 23.0156 266.774 22.4531L268.485 19.6406ZM290.396 16.8281L301.107 5.68359H304.822V16.8281H308.771V20.0859H304.822V24H301.107V20.0859H290.373L290.396 16.8281ZM301.107 16.8281V10.3828L294.85 16.8281H301.107ZM325.758 20.7422H329.918V9.33984C329.371 9.46484 328.844 9.62891 328.336 9.83203C327.836 10.0352 327.379 10.2812 326.965 10.5703L325.137 7.95703C325.809 7.53516 326.492 7.17969 327.188 6.89062C327.891 6.59375 328.598 6.35938 329.309 6.1875C330.027 6.00781 330.746 5.87891 331.465 5.80078C332.192 5.72266 332.914 5.68359 333.633 5.68359L333.621 5.70703H333.633V20.7422H337.606V24H325.758V20.7422ZM343.322 20.8125L349.779 16.3828C350.747 15.7188 351.54 15.1406 352.157 14.6484C352.775 14.1562 353.259 13.7188 353.611 13.3359C353.962 12.9453 354.204 12.5938 354.337 12.2812C354.47 11.9688 354.536 11.6562 354.536 11.3438C354.536 10.9844 354.462 10.6484 354.314 10.3359C354.165 10.0234 353.931 9.75 353.611 9.51562C353.298 9.28125 352.892 9.09766 352.392 8.96484C351.9 8.83203 351.31 8.76562 350.622 8.76562C349.622 8.76562 348.626 8.90625 347.634 9.1875C346.642 9.46875 345.63 9.91797 344.599 10.5352L342.888 7.72266C344.036 7.01172 345.279 6.45703 346.615 6.05859C347.958 5.66016 349.368 5.46094 350.845 5.46094C352.134 5.46094 353.251 5.61719 354.197 5.92969C355.15 6.23438 355.935 6.65234 356.552 7.18359C357.177 7.71484 357.642 8.33203 357.947 9.03516C358.251 9.73828 358.404 10.4844 358.404 11.2734C358.404 11.8828 358.302 12.4648 358.099 13.0195C357.896 13.5742 357.54 14.1484 357.032 14.7422C356.525 15.3359 355.837 15.9766 354.97 16.6641C354.111 17.3438 353.025 18.1172 351.712 18.9844L349.04 20.7422H359.072V24H343.322V20.8125ZM366.909 19.6406C367.83 20.0938 368.815 20.4258 369.862 20.6367C370.916 20.8398 371.944 20.9414 372.944 20.9414C373.834 20.9414 374.604 20.8711 375.252 20.7305C375.901 20.582 376.436 20.3828 376.858 20.1328C377.28 19.8828 377.592 19.5859 377.795 19.2422C377.998 18.8984 378.1 18.5273 378.1 18.1289C378.1 17.5898 377.916 17.1094 377.549 16.6875C377.182 16.2578 376.623 15.9375 375.873 15.7266C375.131 15.5078 374.19 15.4219 373.049 15.4688C371.916 15.5156 370.58 15.7383 369.041 16.1367L369.053 13.3945L375.897 8.94141H366.205V5.68359H380.866V8.87109L374.842 12.6914C375.944 12.6914 376.928 12.832 377.795 13.1133C378.662 13.3945 379.393 13.7812 379.987 14.2734C380.58 14.7656 381.034 15.3477 381.346 16.0195C381.659 16.6914 381.815 17.4141 381.815 18.1875C381.815 19.1016 381.612 19.9336 381.205 20.6836C380.807 21.4258 380.225 22.0625 379.459 22.5938C378.694 23.1172 377.756 23.5234 376.647 23.8125C375.545 24.1016 374.295 24.2461 372.897 24.2461C371.412 24.2461 370.041 24.0898 368.784 23.7773C367.526 23.457 366.33 23.0156 365.198 22.4531L366.909 19.6406ZM388.82 16.8281L399.531 5.68359H403.246V16.8281H407.195V20.0859H403.246V24H399.531V20.0859H388.796L388.82 16.8281ZM399.531 16.8281V10.3828L393.273 16.8281H399.531Z" transform="translate(0 125)" fill="white"/>
</g>
<g filter="url(#filter1_dd)">
<path d="M1.24414 3.31543H3.4248V14H1.24414V3.31543ZM6.69238 10.8213C7.07975 11.04 7.47168 11.2383 7.86816 11.416C8.26921 11.5892 8.68392 11.7373 9.1123 11.8604C9.54069 11.9788 9.98958 12.07 10.459 12.1338C10.9329 12.1976 11.4365 12.2295 11.9697 12.2295C12.6123 12.2295 13.1592 12.1885 13.6104 12.1064C14.0615 12.0199 14.4284 11.9036 14.7109 11.7578C14.998 11.6074 15.2054 11.4297 15.333 11.2246C15.4652 11.0195 15.5312 10.7962 15.5312 10.5547C15.5312 10.1673 15.3695 9.86198 15.0459 9.63867C14.7223 9.41081 14.2233 9.29688 13.5488 9.29688C13.2526 9.29688 12.9404 9.31738 12.6123 9.3584C12.2842 9.39486 11.9515 9.43587 11.6143 9.48145C11.2816 9.52702 10.9512 9.57031 10.623 9.61133C10.2995 9.64779 9.99414 9.66602 9.70703 9.66602C9.22852 9.66602 8.76823 9.60449 8.32617 9.48145C7.88867 9.3584 7.49902 9.17383 7.15723 8.92773C6.81999 8.68164 6.55111 8.37402 6.35059 8.00488C6.15007 7.63574 6.0498 7.20508 6.0498 6.71289C6.0498 6.42122 6.08854 6.13184 6.16602 5.84473C6.24805 5.55762 6.37565 5.28418 6.54883 5.02441C6.72656 4.76009 6.95443 4.51628 7.23242 4.29297C7.51042 4.0651 7.84538 3.86914 8.2373 3.70508C8.63379 3.54102 9.08952 3.41341 9.60449 3.32227C10.124 3.22656 10.7142 3.17871 11.375 3.17871C11.8535 3.17871 12.3343 3.20605 12.8174 3.26074C13.3005 3.31087 13.7699 3.38379 14.2256 3.47949C14.6859 3.5752 15.1279 3.69141 15.5518 3.82812C15.9756 3.96029 16.3698 4.1084 16.7344 4.27246L15.7842 6.02246C15.4834 5.8903 15.1598 5.76953 14.8135 5.66016C14.4671 5.54622 14.1048 5.44824 13.7266 5.36621C13.3483 5.28418 12.9564 5.22038 12.5508 5.1748C12.1497 5.12467 11.7396 5.09961 11.3203 5.09961C10.7233 5.09961 10.2311 5.1429 9.84375 5.22949C9.46094 5.31608 9.1556 5.42773 8.92773 5.56445C8.69987 5.69661 8.54036 5.84701 8.44922 6.01562C8.36263 6.17969 8.31934 6.34375 8.31934 6.50781C8.31934 6.82682 8.46289 7.08887 8.75 7.29395C9.03711 7.49447 9.47461 7.59473 10.0625 7.59473C10.2995 7.59473 10.5706 7.57878 10.876 7.54688C11.1859 7.51042 11.5094 7.47168 11.8467 7.43066C12.1885 7.38965 12.5348 7.35319 12.8857 7.32129C13.2412 7.28483 13.5853 7.2666 13.918 7.2666C14.5469 7.2666 15.1029 7.33724 15.5859 7.47852C16.0736 7.61979 16.4814 7.82259 16.8096 8.08691C17.1377 8.34668 17.3861 8.66341 17.5547 9.03711C17.7233 9.40625 17.8076 9.82096 17.8076 10.2812C17.8076 10.8965 17.6641 11.4456 17.377 11.9287C17.0944 12.4072 16.6888 12.8128 16.1602 13.1455C15.6361 13.4736 15.0026 13.7243 14.2598 13.8975C13.5169 14.0661 12.6898 14.1504 11.7783 14.1504C11.1768 14.1504 10.5889 14.1117 10.0146 14.0342C9.44043 13.9613 8.889 13.8564 8.36035 13.7197C7.83626 13.5785 7.33496 13.4121 6.85645 13.2207C6.38249 13.0247 5.94271 12.8105 5.53711 12.5781L6.69238 10.8213ZM20.6924 10.8213C21.0798 11.04 21.4717 11.2383 21.8682 11.416C22.2692 11.5892 22.6839 11.7373 23.1123 11.8604C23.5407 11.9788 23.9896 12.07 24.459 12.1338C24.9329 12.1976 25.4365 12.2295 25.9697 12.2295C26.6123 12.2295 27.1592 12.1885 27.6104 12.1064C28.0615 12.0199 28.4284 11.9036 28.7109 11.7578C28.998 11.6074 29.2054 11.4297 29.333 11.2246C29.4652 11.0195 29.5312 10.7962 29.5312 10.5547C29.5312 10.1673 29.3695 9.86198 29.0459 9.63867C28.7223 9.41081 28.2233 9.29688 27.5488 9.29688C27.2526 9.29688 26.9404 9.31738 26.6123 9.3584C26.2842 9.39486 25.9515 9.43587 25.6143 9.48145C25.2816 9.52702 24.9512 9.57031 24.623 9.61133C24.2995 9.64779 23.9941 9.66602 23.707 9.66602C23.2285 9.66602 22.7682 9.60449 22.3262 9.48145C21.8887 9.3584 21.499 9.17383 21.1572 8.92773C20.82 8.68164 20.5511 8.37402 20.3506 8.00488C20.1501 7.63574 20.0498 7.20508 20.0498 6.71289C20.0498 6.42122 20.0885 6.13184 20.166 5.84473C20.248 5.55762 20.3757 5.28418 20.5488 5.02441C20.7266 4.76009 20.9544 4.51628 21.2324 4.29297C21.5104 4.0651 21.8454 3.86914 22.2373 3.70508C22.6338 3.54102 23.0895 3.41341 23.6045 3.32227C24.124 3.22656 24.7142 3.17871 25.375 3.17871C25.8535 3.17871 26.3343 3.20605 26.8174 3.26074C27.3005 3.31087 27.7699 3.38379 28.2256 3.47949C28.6859 3.5752 29.1279 3.69141 29.5518 3.82812C29.9756 3.96029 30.3698 4.1084 30.7344 4.27246L29.7842 6.02246C29.4834 5.8903 29.1598 5.76953 28.8135 5.66016C28.4671 5.54622 28.1048 5.44824 27.7266 5.36621C27.3483 5.28418 26.9564 5.22038 26.5508 5.1748C26.1497 5.12467 25.7396 5.09961 25.3203 5.09961C24.7233 5.09961 24.2311 5.1429 23.8438 5.22949C23.4609 5.31608 23.1556 5.42773 22.9277 5.56445C22.6999 5.69661 22.5404 5.84701 22.4492 6.01562C22.3626 6.17969 22.3193 6.34375 22.3193 6.50781C22.3193 6.82682 22.4629 7.08887 22.75 7.29395C23.0371 7.49447 23.4746 7.59473 24.0625 7.59473C24.2995 7.59473 24.5706 7.57878 24.876 7.54688C25.1859 7.51042 25.5094 7.47168 25.8467 7.43066C26.1885 7.38965 26.5348 7.35319 26.8857 7.32129C27.2412 7.28483 27.5853 7.2666 27.918 7.2666C28.5469 7.2666 29.1029 7.33724 29.5859 7.47852C30.0736 7.61979 30.4814 7.82259 30.8096 8.08691C31.1377 8.34668 31.3861 8.66341 31.5547 9.03711C31.7233 9.40625 31.8076 9.82096 31.8076 10.2812C31.8076 10.8965 31.6641 11.4456 31.377 11.9287C31.0944 12.4072 30.6888 12.8128 30.1602 13.1455C29.6361 13.4736 29.0026 13.7243 28.2598 13.8975C27.5169 14.0661 26.6898 14.1504 25.7783 14.1504C25.1768 14.1504 24.5889 14.1117 24.0146 14.0342C23.4404 13.9613 22.889 13.8564 22.3604 13.7197C21.8363 13.5785 21.335 13.4121 20.8564 13.2207C20.3825 13.0247 19.9427 12.8105 19.5371 12.5781L20.6924 10.8213ZM38.2061 8.63379C38.2061 7.77246 38.3359 7 38.5957 6.31641C38.8555 5.63281 39.2246 5.05404 39.7031 4.58008C40.1816 4.10156 40.7627 3.73698 41.4463 3.48633C42.1299 3.23568 42.8955 3.11035 43.7432 3.11035C44.5908 3.11035 45.3564 3.23568 46.04 3.48633C46.7236 3.73698 47.3047 4.10156 47.7832 4.58008C48.2617 5.05404 48.6309 5.63281 48.8906 6.31641C49.1504 7 49.2803 7.77246 49.2803 8.63379C49.2803 9.49512 49.1504 10.2676 48.8906 10.9512C48.6309 11.6348 48.2617 12.2135 47.7832 12.6875C47.3047 13.1615 46.7236 13.5238 46.04 13.7744C45.3564 14.0251 44.5908 14.1504 43.7432 14.1504C42.8955 14.1504 42.1299 14.0251 41.4463 13.7744C40.7627 13.5238 40.1816 13.1615 39.7031 12.6875C39.2246 12.2135 38.8555 11.6348 38.5957 10.9512C38.3359 10.2676 38.2061 9.49512 38.2061 8.63379ZM40.373 8.62695C40.373 9.21029 40.4505 9.72526 40.6055 10.1719C40.765 10.6185 40.9906 10.9945 41.2822 11.2998C41.5739 11.6006 41.9271 11.8307 42.3418 11.9902C42.7565 12.1452 43.2236 12.2227 43.7432 12.2227C44.2627 12.2227 44.7298 12.1452 45.1445 11.9902C45.5592 11.8307 45.9124 11.6006 46.2041 11.2998C46.4958 10.9945 46.7191 10.6185 46.874 10.1719C47.0335 9.72526 47.1133 9.21029 47.1133 8.62695C47.1133 8.04818 47.0335 7.53776 46.874 7.0957C46.7191 6.64909 46.4958 6.27311 46.2041 5.96777C45.9124 5.66243 45.5592 5.43229 45.1445 5.27734C44.7298 5.11784 44.2627 5.03809 43.7432 5.03809C43.2236 5.03809 42.7565 5.11784 42.3418 5.27734C41.9271 5.43229 41.5739 5.66243 41.2822 5.96777C40.9906 6.27311 40.765 6.64909 40.6055 7.0957C40.4505 7.53776 40.373 8.04818 40.373 8.62695ZM51.29 12.0996H53.7168V5.44824C53.3978 5.52116 53.0902 5.61686 52.7939 5.73535C52.5023 5.85384 52.2357 5.9974 51.9941 6.16602L50.9277 4.6416C51.3197 4.39551 51.7184 4.18815 52.124 4.01953C52.5342 3.84635 52.9466 3.70964 53.3613 3.60938C53.7806 3.50456 54.1999 3.42936 54.6191 3.38379C55.043 3.33822 55.4645 3.31543 55.8838 3.31543L55.877 3.3291H55.8838V12.0996H58.2012V14H51.29V12.0996ZM65.7822 1.90039H67.7441L61.3936 16.4199H59.4316L65.7822 1.90039ZM75.79 5.22949H69.5762V3.31543H79.0713L73.5 14H71.0391L75.79 5.22949ZM80.2334 8.63379C80.2334 7.77246 80.3633 7 80.623 6.31641C80.8828 5.63281 81.252 5.05404 81.7305 4.58008C82.209 4.10156 82.79 3.73698 83.4736 3.48633C84.1572 3.23568 84.9229 3.11035 85.7705 3.11035C86.6182 3.11035 87.3838 3.23568 88.0674 3.48633C88.751 3.73698 89.332 4.10156 89.8105 4.58008C90.2891 5.05404 90.6582 5.63281 90.918 6.31641C91.1777 7 91.3076 7.77246 91.3076 8.63379C91.3076 9.49512 91.1777 10.2676 90.918 10.9512C90.6582 11.6348 90.2891 12.2135 89.8105 12.6875C89.332 13.1615 88.751 13.5238 88.0674 13.7744C87.3838 14.0251 86.6182 14.1504 85.7705 14.1504C84.9229 14.1504 84.1572 14.0251 83.4736 13.7744C82.79 13.5238 82.209 13.1615 81.7305 12.6875C81.252 12.2135 80.8828 11.6348 80.623 10.9512C80.3633 10.2676 80.2334 9.49512 80.2334 8.63379ZM82.4004 8.62695C82.4004 9.21029 82.4779 9.72526 82.6328 10.1719C82.7923 10.6185 83.0179 10.9945 83.3096 11.2998C83.6012 11.6006 83.9544 11.8307 84.3691 11.9902C84.7839 12.1452 85.251 12.2227 85.7705 12.2227C86.29 12.2227 86.7572 12.1452 87.1719 11.9902C87.5866 11.8307 87.9398 11.6006 88.2314 11.2998C88.5231 10.9945 88.7464 10.6185 88.9014 10.1719C89.0609 9.72526 89.1406 9.21029 89.1406 8.62695C89.1406 8.04818 89.0609 7.53776 88.9014 7.0957C88.7464 6.64909 88.5231 6.27311 88.2314 5.96777C87.9398 5.66243 87.5866 5.43229 87.1719 5.27734C86.7572 5.11784 86.29 5.03809 85.7705 5.03809C85.251 5.03809 84.7839 5.11784 84.3691 5.27734C83.9544 5.43229 83.6012 5.66243 83.3096 5.96777C83.0179 6.27311 82.7923 6.64909 82.6328 7.0957C82.4779 7.53776 82.4004 8.04818 82.4004 8.62695Z" transform="translate(30 167)" fill="white"/>
</g>
<g filter="url(#filter2_dd)">
<path d="M1.51758 3.31543H10.6162V5.21582H3.68457V7.34863H9.82324V9.13281H3.68457V12.1064H10.7598V14H1.51758V3.31543ZM16.2012 8.57227L12.0928 3.31543H14.7451L17.582 6.99316L20.4326 3.31543H23.0439L18.8604 8.55176L23.1875 14H20.5283L17.4863 10.1582L14.376 14H11.7578L16.2012 8.57227ZM24.8145 3.31543H30.4473C31.2676 3.31543 31.9785 3.4043 32.5801 3.58203C33.1816 3.75977 33.6807 4.01725 34.0771 4.35449C34.4736 4.68717 34.7676 5.09505 34.959 5.57812C35.1549 6.0612 35.2529 6.60579 35.2529 7.21191C35.2529 7.78158 35.1572 8.30794 34.9658 8.79102C34.7744 9.27409 34.4805 9.69336 34.084 10.0488C33.6921 10.3997 33.1953 10.6755 32.5938 10.876C31.9922 11.0719 31.2812 11.1699 30.4609 11.1699L26.9814 11.1631V14H24.8145V3.31543ZM30.502 9.29004C30.9121 9.29004 31.2699 9.24219 31.5752 9.14648C31.8851 9.04622 32.1426 8.90723 32.3477 8.72949C32.5573 8.5472 32.7122 8.32845 32.8125 8.07324C32.9173 7.81348 32.9697 7.52637 32.9697 7.21191C32.9697 6.57845 32.7624 6.08626 32.3477 5.73535C31.9375 5.37988 31.3223 5.20215 30.502 5.20215H26.9814V9.29004H30.502ZM41.6377 8.63379C41.6377 7.77246 41.7676 7 42.0273 6.31641C42.2871 5.63281 42.6562 5.05404 43.1348 4.58008C43.6133 4.10156 44.1943 3.73698 44.8779 3.48633C45.5615 3.23568 46.3271 3.11035 47.1748 3.11035C48.0225 3.11035 48.7881 3.23568 49.4717 3.48633C50.1553 3.73698 50.7363 4.10156 51.2148 4.58008C51.6934 5.05404 52.0625 5.63281 52.3223 6.31641C52.582 7 52.7119 7.77246 52.7119 8.63379C52.7119 9.49512 52.582 10.2676 52.3223 10.9512C52.0625 11.6348 51.6934 12.2135 51.2148 12.6875C50.7363 13.1615 50.1553 13.5238 49.4717 13.7744C48.7881 14.0251 48.0225 14.1504 47.1748 14.1504C46.3271 14.1504 45.5615 14.0251 44.8779 13.7744C44.1943 13.5238 43.6133 13.1615 43.1348 12.6875C42.6562 12.2135 42.2871 11.6348 42.0273 10.9512C41.7676 10.2676 41.6377 9.49512 41.6377 8.63379ZM43.8047 8.62695C43.8047 9.21029 43.8822 9.72526 44.0371 10.1719C44.1966 10.6185 44.4222 10.9945 44.7139 11.2998C45.0055 11.6006 45.3587 11.8307 45.7734 11.9902C46.1882 12.1452 46.6553 12.2227 47.1748 12.2227C47.6943 12.2227 48.1615 12.1452 48.5762 11.9902C48.9909 11.8307 49.3441 11.6006 49.6357 11.2998C49.9274 10.9945 50.1507 10.6185 50.3057 10.1719C50.4652 9.72526 50.5449 9.21029 50.5449 8.62695C50.5449 8.04818 50.4652 7.53776 50.3057 7.0957C50.1507 6.64909 49.9274 6.27311 49.6357 5.96777C49.3441 5.66243 48.9909 5.43229 48.5762 5.27734C48.1615 5.11784 47.6943 5.03809 47.1748 5.03809C46.6553 5.03809 46.1882 5.11784 45.7734 5.27734C45.3587 5.43229 45.0055 5.66243 44.7139 5.96777C44.4222 6.27311 44.1966 6.64909 44.0371 7.0957C43.8822 7.53776 43.8047 8.04818 43.8047 8.62695ZM54.7217 12.0996H57.1484V5.44824C56.8294 5.52116 56.5218 5.61686 56.2256 5.73535C55.9339 5.85384 55.6673 5.9974 55.4258 6.16602L54.3594 4.6416C54.7513 4.39551 55.1501 4.18815 55.5557 4.01953C55.9658 3.84635 56.3783 3.70964 56.793 3.60938C57.2122 3.50456 57.6315 3.42936 58.0508 3.38379C58.4746 3.33822 58.8962 3.31543 59.3154 3.31543L59.3086 3.3291H59.3154V12.0996H61.6328V14H54.7217V12.0996ZM69.2139 1.90039H71.1758L64.8252 16.4199H62.8633L69.2139 1.90039ZM73.3428 10.7461C73.3428 10.4271 73.3861 10.1309 73.4727 9.85742C73.5592 9.58398 73.6777 9.33561 73.8281 9.1123C73.9785 8.88444 74.1517 8.68392 74.3477 8.51074C74.5482 8.33301 74.7624 8.17806 74.9902 8.0459C74.6758 7.736 74.4479 7.42839 74.3066 7.12305C74.1654 6.81315 74.0947 6.51693 74.0947 6.23438C74.0947 5.7832 74.1995 5.37077 74.4092 4.99707C74.6234 4.62337 74.9287 4.30208 75.3252 4.0332C75.7217 3.75977 76.2025 3.55013 76.7676 3.4043C77.3327 3.25391 77.9684 3.17871 78.6748 3.17871C79.3812 3.17871 80.0169 3.25391 80.582 3.4043C81.1471 3.55013 81.6279 3.75977 82.0244 4.0332C82.4209 4.30208 82.724 4.62337 82.9336 4.99707C83.1478 5.37077 83.2549 5.7832 83.2549 6.23438C83.2549 6.51693 83.1842 6.81315 83.043 7.12305C82.9017 7.42839 82.6738 7.736 82.3594 8.0459C82.5827 8.17806 82.7946 8.33301 82.9951 8.51074C83.1956 8.68392 83.3711 8.88444 83.5215 9.1123C83.6719 9.33561 83.7904 9.58398 83.877 9.85742C83.9635 10.1309 84.0068 10.4271 84.0068 10.7461C84.0068 11.2793 83.8815 11.7578 83.6309 12.1816C83.3848 12.6009 83.0293 12.9564 82.5645 13.248C82.1042 13.5352 81.5436 13.7562 80.8828 13.9111C80.2266 14.0661 79.4906 14.1436 78.6748 14.1436C77.859 14.1436 77.1208 14.0661 76.46 13.9111C75.8037 13.7562 75.2432 13.5352 74.7783 13.248C74.318 12.9564 73.9626 12.6009 73.7119 12.1816C73.4658 11.7578 73.3428 11.2793 73.3428 10.7461ZM76.2617 6.33008C76.2617 6.4987 76.3027 6.6582 76.3848 6.80859C76.4714 6.95443 76.6081 7.08431 76.7949 7.19824C76.9863 7.30762 77.2347 7.39421 77.54 7.45801C77.8499 7.52181 78.2282 7.55371 78.6748 7.55371C79.1214 7.55371 79.4974 7.52181 79.8027 7.45801C80.1126 7.39421 80.361 7.30762 80.5479 7.19824C80.7393 7.08431 80.876 6.95443 80.958 6.80859C81.0446 6.6582 81.0879 6.4987 81.0879 6.33008C81.0879 6.16146 81.0446 6.00423 80.958 5.8584C80.876 5.70801 80.7393 5.57812 80.5479 5.46875C80.361 5.35482 80.1126 5.26595 79.8027 5.20215C79.4974 5.13835 79.1214 5.10645 78.6748 5.10645C78.2282 5.10645 77.8499 5.13835 77.54 5.20215C77.2347 5.26595 76.9863 5.35482 76.7949 5.46875C76.6081 5.57812 76.4714 5.70801 76.3848 5.8584C76.3027 6.00423 76.2617 6.16146 76.2617 6.33008ZM75.5098 10.6436C75.5098 10.876 75.5758 11.0902 75.708 11.2861C75.8447 11.4775 76.0452 11.6416 76.3096 11.7783C76.5739 11.915 76.9043 12.0221 77.3008 12.0996C77.6973 12.1771 78.1553 12.2158 78.6748 12.2158C79.1943 12.2158 79.6523 12.1771 80.0488 12.0996C80.4453 12.0221 80.7757 11.915 81.04 11.7783C81.3044 11.6416 81.5026 11.4775 81.6348 11.2861C81.7715 11.0902 81.8398 10.876 81.8398 10.6436C81.8398 10.4111 81.7738 10.1992 81.6416 10.0078C81.514 9.81185 81.318 9.64551 81.0537 9.50879C80.7939 9.37207 80.4658 9.26497 80.0693 9.1875C79.6729 9.11003 79.208 9.07129 78.6748 9.07129C78.1416 9.07129 77.6768 9.11003 77.2803 9.1875C76.8838 9.26497 76.5534 9.37207 76.2891 9.50879C76.0293 9.64551 75.8333 9.81185 75.7012 10.0078C75.5736 10.1992 75.5098 10.4111 75.5098 10.6436ZM85.9619 8.63379C85.9619 7.77246 86.0918 7 86.3516 6.31641C86.6113 5.63281 86.9805 5.05404 87.459 4.58008C87.9375 4.10156 88.5186 3.73698 89.2021 3.48633C89.8857 3.23568 90.6514 3.11035 91.499 3.11035C92.3467 3.11035 93.1123 3.23568 93.7959 3.48633C94.4795 3.73698 95.0605 4.10156 95.5391 4.58008C96.0176 5.05404 96.3867 5.63281 96.6465 6.31641C96.9062 7 97.0361 7.77246 97.0361 8.63379C97.0361 9.49512 96.9062 10.2676 96.6465 10.9512C96.3867 11.6348 96.0176 12.2135 95.5391 12.6875C95.0605 13.1615 94.4795 13.5238 93.7959 13.7744C93.1123 14.0251 92.3467 14.1504 91.499 14.1504C90.6514 14.1504 89.8857 14.0251 89.2021 13.7744C88.5186 13.5238 87.9375 13.1615 87.459 12.6875C86.9805 12.2135 86.6113 11.6348 86.3516 10.9512C86.0918 10.2676 85.9619 9.49512 85.9619 8.63379ZM88.1289 8.62695C88.1289 9.21029 88.2064 9.72526 88.3613 10.1719C88.5208 10.6185 88.7464 10.9945 89.0381 11.2998C89.3298 11.6006 89.6829 11.8307 90.0977 11.9902C90.5124 12.1452 90.9795 12.2227 91.499 12.2227C92.0186 12.2227 92.4857 12.1452 92.9004 11.9902C93.3151 11.8307 93.6683 11.6006 93.96 11.2998C94.2516 10.9945 94.4749 10.6185 94.6299 10.1719C94.7894 9.72526 94.8691 9.21029 94.8691 8.62695C94.8691 8.04818 94.7894 7.53776 94.6299 7.0957C94.4749 6.64909 94.2516 6.27311 93.96 5.96777C93.6683 5.66243 93.3151 5.43229 92.9004 5.27734C92.4857 5.11784 92.0186 5.03809 91.499 5.03809C90.9795 5.03809 90.5124 5.11784 90.0977 5.27734C89.6829 5.43229 89.3298 5.66243 89.0381 5.96777C88.7464 6.27311 88.5208 6.64909 88.3613 7.0957C88.2064 7.53776 88.1289 8.04818 88.1289 8.62695Z" transform="translate(136 167)" fill="white"/>
</g>
<g filter="url(#filter3_dd)">
<path d="M-0.694336 20.2764C-0.290039 20.0303 0.0556641 19.7725 0.342773 19.5029C0.635742 19.2334 0.875977 18.9346 1.06348 18.6064C1.25098 18.2842 1.38867 17.9238 1.47656 17.5254C1.56445 17.1211 1.6084 16.6641 1.6084 16.1543V4.2627H4.39453V15.6533C4.39453 16.2627 4.36816 16.8193 4.31543 17.3232C4.2627 17.8213 4.1748 18.2783 4.05176 18.6943C3.93457 19.1162 3.77344 19.5029 3.56836 19.8545C3.36914 20.2061 3.12012 20.54 2.82129 20.8564C2.52832 21.1729 2.17969 21.4775 1.77539 21.7705C1.37695 22.0635 0.914062 22.3594 0.386719 22.6582L-0.694336 20.2764ZM7.69043 16.4795C7.69043 16.2451 7.7373 16.0254 7.83105 15.8203C7.93066 15.6094 8.07129 15.4277 8.25293 15.2754C8.43457 15.1172 8.6543 14.9941 8.91211 14.9062C9.16992 14.8184 9.45996 14.7744 9.78223 14.7744C10.1045 14.7744 10.3945 14.8184 10.6523 14.9062C10.9102 14.9941 11.127 15.1172 11.3027 15.2754C11.4844 15.4277 11.6221 15.6094 11.7158 15.8203C11.8154 16.0254 11.8652 16.2451 11.8652 16.4795C11.8652 16.7139 11.8154 16.9365 11.7158 17.1475C11.6221 17.3525 11.4844 17.5312 11.3027 17.6836C11.127 17.8359 10.9102 17.9561 10.6523 18.0439C10.3945 18.1377 10.1045 18.1846 9.78223 18.1846C9.45996 18.1846 9.16992 18.1377 8.91211 18.0439C8.6543 17.9561 8.43457 17.8359 8.25293 17.6836C8.07129 17.5312 7.93066 17.3525 7.83105 17.1475C7.7373 16.9365 7.69043 16.7139 7.69043 16.4795ZM22.1221 13.9131C22.6201 14.1943 23.124 14.4492 23.6338 14.6777C24.1494 14.9004 24.6826 15.0908 25.2334 15.249C25.7842 15.4014 26.3613 15.5186 26.9648 15.6006C27.5742 15.6826 28.2217 15.7236 28.9072 15.7236C29.7334 15.7236 30.4365 15.6709 31.0166 15.5654C31.5967 15.4541 32.0684 15.3047 32.4316 15.1172C32.8008 14.9238 33.0674 14.6953 33.2314 14.4316C33.4014 14.168 33.4863 13.8809 33.4863 13.5703C33.4863 13.0723 33.2783 12.6797 32.8623 12.3926C32.4463 12.0996 31.8047 11.9531 30.9375 11.9531C30.5566 11.9531 30.1553 11.9795 29.7334 12.0322C29.3115 12.0791 28.8838 12.1318 28.4502 12.1904C28.0225 12.249 27.5977 12.3047 27.1758 12.3574C26.7598 12.4043 26.3672 12.4277 25.998 12.4277C25.3828 12.4277 24.791 12.3486 24.2227 12.1904C23.6602 12.0322 23.1592 11.7949 22.7197 11.4785C22.2861 11.1621 21.9404 10.7666 21.6826 10.292C21.4248 9.81738 21.2959 9.26367 21.2959 8.63086C21.2959 8.25586 21.3457 7.88379 21.4453 7.51465C21.5508 7.14551 21.7148 6.79395 21.9375 6.45996C22.166 6.12012 22.459 5.80664 22.8164 5.51953C23.1738 5.22656 23.6045 4.97461 24.1084 4.76367C24.6182 4.55273 25.2041 4.38867 25.8662 4.27148C26.5342 4.14844 27.293 4.08691 28.1426 4.08691C28.7578 4.08691 29.376 4.12207 29.9971 4.19238C30.6182 4.25684 31.2217 4.35059 31.8076 4.47363C32.3994 4.59668 32.9678 4.74609 33.5127 4.92188C34.0576 5.0918 34.5645 5.28223 35.0332 5.49316L33.8115 7.74316C33.4248 7.57324 33.0088 7.41797 32.5635 7.27734C32.1182 7.13086 31.6523 7.00488 31.166 6.89941C30.6797 6.79395 30.1758 6.71191 29.6543 6.65332C29.1387 6.58887 28.6113 6.55664 28.0723 6.55664C27.3047 6.55664 26.6719 6.6123 26.1738 6.72363C25.6816 6.83496 25.2891 6.97852 24.9961 7.1543C24.7031 7.32422 24.498 7.51758 24.3809 7.73438C24.2695 7.94531 24.2139 8.15625 24.2139 8.36719C24.2139 8.77734 24.3984 9.11426 24.7676 9.37793C25.1367 9.63574 25.6992 9.76465 26.4551 9.76465C26.7598 9.76465 27.1084 9.74414 27.501 9.70312C27.8994 9.65625 28.3154 9.60645 28.749 9.55371C29.1885 9.50098 29.6338 9.4541 30.085 9.41309C30.542 9.36621 30.9844 9.34277 31.4121 9.34277C32.2207 9.34277 32.9355 9.43359 33.5566 9.61523C34.1836 9.79688 34.708 10.0576 35.1299 10.3975C35.5518 10.7314 35.8711 11.1387 36.0879 11.6191C36.3047 12.0938 36.4131 12.627 36.4131 13.2188C36.4131 14.0098 36.2285 14.7158 35.8594 15.3369C35.4961 15.9521 34.9746 16.4736 34.2949 16.9014C33.6211 17.3232 32.8066 17.6455 31.8516 17.8682C30.8965 18.085 29.833 18.1934 28.6611 18.1934C27.8877 18.1934 27.1318 18.1436 26.3936 18.0439C25.6553 17.9502 24.9463 17.8154 24.2666 17.6396C23.5928 17.458 22.9482 17.2441 22.333 16.998C21.7236 16.7461 21.1582 16.4707 20.6367 16.1719L22.1221 13.9131ZM39.2256 7.62891H41.8271V8.50781C42.4775 8.10938 43.1104 7.83398 43.7256 7.68164C44.3467 7.52344 44.9531 7.44434 45.5449 7.44434C46.3711 7.44434 47.1299 7.57617 47.8213 7.83984C48.5127 8.10352 49.1045 8.50195 49.5967 9.03516C49.9775 8.74219 50.3525 8.49609 50.7217 8.29688C51.0908 8.0918 51.46 7.92773 51.8291 7.80469C52.1982 7.67578 52.5732 7.58496 52.9541 7.53223C53.335 7.47363 53.7275 7.44434 54.1318 7.44434C54.9814 7.44434 55.752 7.56152 56.4434 7.7959C57.1348 8.02441 57.7236 8.36719 58.21 8.82422C58.7021 9.28125 59.0801 9.85254 59.3438 10.5381C59.6133 11.2178 59.748 12.0059 59.748 12.9023V18H57.1553V13.3242C57.1553 12.7559 57.0732 12.249 56.9092 11.8037C56.751 11.3525 56.5254 10.9746 56.2324 10.6699C55.9453 10.3594 55.5996 10.125 55.1953 9.9668C54.7969 9.80273 54.3574 9.7207 53.877 9.7207C53.6133 9.7207 53.3438 9.74707 53.0684 9.7998C52.793 9.84668 52.5234 9.92285 52.2598 10.0283C52.002 10.1338 51.7588 10.2686 51.5303 10.4326C51.3018 10.5908 51.1025 10.7783 50.9326 10.9951V18H48.3398V13.3242C48.3398 12.7559 48.2578 12.249 48.0938 11.8037C47.9355 11.3525 47.71 10.9746 47.417 10.6699C47.1299 10.3594 46.7812 10.125 46.3711 9.9668C45.9668 9.80273 45.5215 9.7207 45.0352 9.7207C44.7363 9.7207 44.4346 9.75293 44.1299 9.81738C43.8311 9.87598 43.541 9.96094 43.2598 10.0723C42.9844 10.1836 42.7236 10.3184 42.4775 10.4766C42.2373 10.6348 42.0205 10.8135 41.8271 11.0127V18H39.2256V7.62891ZM64.3975 6.21387C64.1396 6.21387 63.9053 6.17871 63.6943 6.1084C63.4893 6.03223 63.3135 5.93262 63.167 5.80957C63.0205 5.68066 62.9062 5.53418 62.8242 5.37012C62.748 5.2002 62.71 5.02148 62.71 4.83398C62.71 4.64062 62.748 4.46191 62.8242 4.29785C62.9062 4.12793 63.0205 3.98145 63.167 3.8584C63.3135 3.73535 63.4893 3.63867 63.6943 3.56836C63.9053 3.49219 64.1396 3.4541 64.3975 3.4541C64.6611 3.4541 64.8955 3.49219 65.1006 3.56836C65.3115 3.63867 65.4902 3.73535 65.6367 3.8584C65.7832 3.98145 65.8945 4.12793 65.9707 4.29785C66.0527 4.46191 66.0938 4.64062 66.0938 4.83398C66.0938 5.02148 66.0527 5.2002 65.9707 5.37012C65.8945 5.53418 65.7832 5.68066 65.6367 5.80957C65.4902 5.93262 65.3115 6.03223 65.1006 6.1084C64.8955 6.17871 64.6611 6.21387 64.3975 6.21387ZM63.0967 7.62891H65.6982V18H63.0967V7.62891ZM70.6025 9.58008H68.0977V7.62891H70.6025V4.40332H73.2041V7.62891H75.709V9.58008H73.2041V18H70.6025V9.58008ZM78.0205 3.42773H80.6221V8.41992C81.167 8.12109 81.7734 7.88379 82.4414 7.70801C83.1152 7.53223 83.8213 7.44434 84.5596 7.44434C85.415 7.44434 86.1826 7.57031 86.8623 7.82227C87.5479 8.07422 88.1279 8.4375 88.6025 8.91211C89.0771 9.38086 89.4404 9.95215 89.6924 10.626C89.9502 11.2998 90.0791 12.0586 90.0791 12.9023V18H87.4863V13.0078C87.4863 12.5156 87.4072 12.0674 87.249 11.6631C87.0908 11.2529 86.8594 10.9014 86.5547 10.6084C86.25 10.3154 85.8779 10.0898 85.4385 9.93164C85.0049 9.76758 84.5127 9.68555 83.9619 9.68555C83.2998 9.68555 82.6846 9.79102 82.1162 10.002C81.5479 10.2129 81.0498 10.4795 80.6221 10.8018V18H78.0205V3.42773Z" transform="translate(30 197)" fill="white"/>
</g>
<path d="M8.58984 24.3164C7.44922 24.3164 6.39844 24.125 5.4375 23.7422C4.48438 23.3594 3.66016 22.7891 2.96484 22.0312C2.26953 21.2734 1.73047 20.3281 1.34766 19.1953C0.964844 18.0625 0.773438 16.7617 0.773438 15.293C0.773438 13.832 0.957031 12.5586 1.32422 11.4727C1.69922 10.3867 2.24219 9.44141 2.95312 8.63672C3.64844 7.85547 4.47266 7.26172 5.42578 6.85547C6.37891 6.44141 7.44531 6.23438 8.625 6.23438C9.21094 6.23438 9.75781 6.27734 10.2656 6.36328C10.7812 6.44922 11.2578 6.55859 11.6953 6.69141C12.0703 6.80859 12.4531 6.95703 12.8438 7.13672C13.2422 7.30859 13.6328 7.5 14.0156 7.71094V10.5117H13.8281C13.625 10.3242 13.3633 10.0977 13.043 9.83203C12.7227 9.56641 12.332 9.30469 11.8711 9.04688C11.4258 8.80469 10.9414 8.60547 10.418 8.44922C9.89453 8.29297 9.28906 8.21484 8.60156 8.21484C7.85938 8.21484 7.15625 8.36719 6.49219 8.67188C5.82812 8.97656 5.24609 9.42578 4.74609 10.0195C4.25391 10.6133 3.87109 11.3594 3.59766 12.2578C3.32422 13.1562 3.1875 14.168 3.1875 15.293C3.1875 16.4883 3.33203 17.5195 3.62109 18.3867C3.91016 19.2461 4.30469 19.9727 4.80469 20.5664C5.28906 21.1445 5.85938 21.582 6.51562 21.8789C7.17188 22.168 7.86719 22.3125 8.60156 22.3125C9.27344 22.3125 9.89453 22.2305 10.4648 22.0664C11.0352 21.9023 11.543 21.6953 11.9883 21.4453C12.418 21.2031 12.7891 20.957 13.1016 20.707C13.4141 20.4492 13.6602 20.2305 13.8398 20.0508H14.0156V22.8164C13.6328 22.9961 13.2695 23.168 12.9258 23.332C12.5898 23.4961 12.1797 23.6562 11.6953 23.8125C11.1875 23.9766 10.7148 24.1016 10.2773 24.1875C9.84766 24.2734 9.28516 24.3164 8.58984 24.3164ZM22.9453 5.76562L16.1133 27.7969H14.1328L20.9297 5.76562H22.9453ZM32.1914 24.3164C31.0508 24.3164 30 24.125 29.0391 23.7422C28.0859 23.3594 27.2617 22.7891 26.5664 22.0312C25.8711 21.2734 25.332 20.3281 24.9492 19.1953C24.5664 18.0625 24.375 16.7617 24.375 15.293C24.375 13.832 24.5586 12.5586 24.9258 11.4727C25.3008 10.3867 25.8438 9.44141 26.5547 8.63672C27.25 7.85547 28.0742 7.26172 29.0273 6.85547C29.9805 6.44141 31.0469 6.23438 32.2266 6.23438C32.8125 6.23438 33.3594 6.27734 33.8672 6.36328C34.3828 6.44922 34.8594 6.55859 35.2969 6.69141C35.6719 6.80859 36.0547 6.95703 36.4453 7.13672C36.8438 7.30859 37.2344 7.5 37.6172 7.71094V10.5117H37.4297C37.2266 10.3242 36.9648 10.0977 36.6445 9.83203C36.3242 9.56641 35.9336 9.30469 35.4727 9.04688C35.0273 8.80469 34.543 8.60547 34.0195 8.44922C33.4961 8.29297 32.8906 8.21484 32.2031 8.21484C31.4609 8.21484 30.7578 8.36719 30.0938 8.67188C29.4297 8.97656 28.8477 9.42578 28.3477 10.0195C27.8555 10.6133 27.4727 11.3594 27.1992 12.2578C26.9258 13.1562 26.7891 14.168 26.7891 15.293C26.7891 16.4883 26.9336 17.5195 27.2227 18.3867C27.5117 19.2461 27.9062 19.9727 28.4062 20.5664C28.8906 21.1445 29.4609 21.582 30.1172 21.8789C30.7734 22.168 31.4688 22.3125 32.2031 22.3125C32.875 22.3125 33.4961 22.2305 34.0664 22.0664C34.6367 21.9023 35.1445 21.6953 35.5898 21.4453C36.0195 21.2031 36.3906 20.957 36.7031 20.707C37.0156 20.4492 37.2617 20.2305 37.4414 20.0508H37.6172V22.8164C37.2344 22.9961 36.8711 23.168 36.5273 23.332C36.1914 23.4961 35.7812 23.6562 35.2969 23.8125C34.7891 23.9766 34.3164 24.1016 33.8789 24.1875C33.4492 24.2734 32.8867 24.3164 32.1914 24.3164ZM59.9297 6.55078L53.9297 24H51.4219L45.4219 6.55078H47.9062L52.7344 21.0352L57.5625 6.55078H59.9297ZM66.0117 24.3047C63.9258 24.3047 62.3047 23.7188 61.1484 22.5469C60 21.3672 59.4258 19.6953 59.4258 17.5312C59.4258 15.3984 59.9844 13.7031 61.1016 12.4453C62.2188 11.1797 63.6797 10.5469 65.4844 10.5469C66.2969 10.5469 67.0156 10.6641 67.6406 10.8984C68.2656 11.1328 68.8125 11.5 69.2812 12C69.75 12.5 70.1094 13.1133 70.3594 13.8398C70.6094 14.5586 70.7344 15.4414 70.7344 16.4883V17.6836H61.6641C61.6641 19.207 62.0469 20.3711 62.8125 21.1758C63.5781 21.9805 64.6367 22.3828 65.9883 22.3828C66.4727 22.3828 66.9453 22.3281 67.4062 22.2188C67.875 22.1094 68.2969 21.9688 68.6719 21.7969C69.0703 21.6172 69.4062 21.4453 69.6797 21.2812C69.9531 21.1094 70.1797 20.9492 70.3594 20.8008H70.4883V23.2031C70.2305 23.3047 69.9102 23.4336 69.5273 23.5898C69.1445 23.7383 68.8008 23.8555 68.4961 23.9414C68.0664 24.0586 67.6758 24.1484 67.3242 24.2109C66.9805 24.2734 66.543 24.3047 66.0117 24.3047ZM68.5898 15.9961C68.5742 15.4023 68.5039 14.8906 68.3789 14.4609C68.2539 14.0312 68.0742 13.668 67.8398 13.3711C67.582 13.043 67.25 12.793 66.8438 12.6211C66.4453 12.4492 65.9492 12.3633 65.3555 12.3633C64.7695 12.3633 64.2695 12.4531 63.8555 12.6328C63.4492 12.8047 63.0781 13.0586 62.7422 13.3945C62.4141 13.7383 62.1641 14.1211 61.9922 14.543C61.8203 14.957 61.7109 15.4414 61.6641 15.9961H68.5898ZM79.8984 13.2773H79.7812C79.6172 13.2305 79.4414 13.2031 79.2539 13.1953C79.0742 13.1797 78.8555 13.1719 78.5977 13.1719C78.0039 13.1719 77.4141 13.3008 76.8281 13.5586C76.2422 13.8164 75.6875 14.1992 75.1641 14.707V24H72.9609V10.9102H75.1641V12.8555C75.9688 12.1445 76.668 11.6445 77.2617 11.3555C77.8633 11.0586 78.4453 10.9102 79.0078 10.9102C79.2344 10.9102 79.4023 10.918 79.5117 10.9336C79.6289 10.9414 79.7578 10.957 79.8984 10.9805V13.2773ZM83.8594 24H81.6562V10.9102H83.8594V24ZM84.0117 8.71875H81.5039V6.43359H84.0117V8.71875ZM94.0312 7.875H93.9141C93.7188 7.80469 93.4375 7.73828 93.0703 7.67578C92.7031 7.60547 92.375 7.57031 92.0859 7.57031C91.1562 7.57031 90.4922 7.78125 90.0938 8.20312C89.7031 8.61719 89.5078 9.37109 89.5078 10.4648V10.9102H93.1523V12.7383H89.5781V24H87.375V12.7383H85.8867V10.9102H87.375V10.4766C87.375 8.89844 87.7539 7.69922 88.5117 6.87891C89.2695 6.05859 90.3555 5.64844 91.7695 5.64844C92.1758 5.64844 92.5742 5.67188 92.9648 5.71875C93.3555 5.75781 93.7109 5.80469 94.0312 5.85938V7.875ZM97.0312 24H94.8281V10.9102H97.0312V24ZM97.1836 8.71875H94.6758V6.43359H97.1836V8.71875ZM105.949 24.3047C103.863 24.3047 102.242 23.7188 101.086 22.5469C99.9375 21.3672 99.3633 19.6953 99.3633 17.5312C99.3633 15.3984 99.9219 13.7031 101.039 12.4453C102.156 11.1797 103.617 10.5469 105.422 10.5469C106.234 10.5469 106.953 10.6641 107.578 10.8984C108.203 11.1328 108.75 11.5 109.219 12C109.688 12.5 110.047 13.1133 110.297 13.8398C110.547 14.5586 110.672 15.4414 110.672 16.4883V17.6836H101.602C101.602 19.207 101.984 20.3711 102.75 21.1758C103.516 21.9805 104.574 22.3828 105.926 22.3828C106.41 22.3828 106.883 22.3281 107.344 22.2188C107.812 22.1094 108.234 21.9688 108.609 21.7969C109.008 21.6172 109.344 21.4453 109.617 21.2812C109.891 21.1094 110.117 20.9492 110.297 20.8008H110.426V23.2031C110.168 23.3047 109.848 23.4336 109.465 23.5898C109.082 23.7383 108.738 23.8555 108.434 23.9414C108.004 24.0586 107.613 24.1484 107.262 24.2109C106.918 24.2734 106.48 24.3047 105.949 24.3047ZM108.527 15.9961C108.512 15.4023 108.441 14.8906 108.316 14.4609C108.191 14.0312 108.012 13.668 107.777 13.3711C107.52 13.043 107.188 12.793 106.781 12.6211C106.383 12.4492 105.887 12.3633 105.293 12.3633C104.707 12.3633 104.207 12.4531 103.793 12.6328C103.387 12.8047 103.016 13.0586 102.68 13.3945C102.352 13.7383 102.102 14.1211 101.93 14.543C101.758 14.957 101.648 15.4414 101.602 15.9961H108.527ZM119.836 13.2773H119.719C119.555 13.2305 119.379 13.2031 119.191 13.1953C119.012 13.1797 118.793 13.1719 118.535 13.1719C117.941 13.1719 117.352 13.3008 116.766 13.5586C116.18 13.8164 115.625 14.1992 115.102 14.707V24H112.898V10.9102H115.102V12.8555C115.906 12.1445 116.605 11.6445 117.199 11.3555C117.801 11.0586 118.383 10.9102 118.945 10.9102C119.172 10.9102 119.34 10.918 119.449 10.9336C119.566 10.9414 119.695 10.957 119.836 10.9805V13.2773Z" transform="translate(292 42)" fill="white"/>
</g>
<defs>
<filter id="filter0_dd" x="24.4447" y="126.461" width="387.75" height="31.7852" filterUnits="userSpaceOnUse" color-interpolation-filters="sRGB">
<feFlood flood-opacity="0" result="BackgroundImageFix"/>
<feColorMatrix in="SourceAlpha" type="matrix" values="0 0 0 0 0 0 0 0 0 0 0 0 0 0 0 0 0 0 255 0"/>
<feOffset dx="-1" dy="-1"/>
<feGaussianBlur stdDeviation="1"/>
<feColorMatrix type="matrix" values="0 0 0 0 1 0 0 0 0 1 0 0 0 0 1 0 0 0 0.4 0"/>
<feBlend mode="normal" in2="BackgroundImageFix" result="effect1_dropShadow"/>
<feColorMatrix in="SourceAlpha" type="matrix" values="0 0 0 0 0 0 0 0 0 0 0 0 0 0 0 0 0 0 255 0"/>
<feOffset dy="4"/>
<feGaussianBlur stdDeviation="2"/>
<feColorMatrix type="matrix" values="0 0 0 0 0 0 0 0 0 0 0 0 0 0 0 0 0 0 0.25 0"/>
<feBlend mode="normal" in2="effect1_dropShadow" result="effect2_dropShadow"/>
<feBlend mode="normal" in="SourceGraphic" in2="effect2_dropShadow" result="shape"/>
</filter>
<filter id="filter1_dd" x="26.2441" y="164.9" width="100.063" height="27.5195" filterUnits="userSpaceOnUse" color-interpolation-filters="sRGB">
<feFlood flood-opacity="0" result="BackgroundImageFix"/>
<feColorMatrix in="SourceAlpha" type="matrix" values="0 0 0 0 0 0 0 0 0 0 0 0 0 0 0 0 0 0 255 0"/>
<feOffset dx="-1" dy="-1"/>
<feGaussianBlur stdDeviation="1"/>
<feColorMatrix type="matrix" values="0 0 0 0 1 0 0 0 0 1 0 0 0 0 1 0 0 0 0.4 0"/>
<feBlend mode="normal" in2="BackgroundImageFix" result="effect1_dropShadow"/>
<feColorMatrix in="SourceAlpha" type="matrix" values="0 0 0 0 0 0 0 0 0 0 0 0 0 0 0 0 0 0 255 0"/>
<feOffset dy="4"/>
<feGaussianBlur stdDeviation="2"/>
<feColorMatrix type="matrix" values="0 0 0 0 0 0 0 0 0 0 0 0 0 0 0 0 0 0 0.25 0"/>
<feBlend mode="normal" in2="effect1_dropShadow" result="effect2_dropShadow"/>
<feBlend mode="normal" in="SourceGraphic" in2="effect2_dropShadow" result="shape"/>
</filter>
<filter id="filter2_dd" x="132.518" y="164.9" width="105.519" height="27.5195" filterUnits="userSpaceOnUse" color-interpolation-filters="sRGB">
<feFlood flood-opacity="0" result="BackgroundImageFix"/>
<feColorMatrix in="SourceAlpha" type="matrix" values="0 0 0 0 0 0 0 0 0 0 0 0 0 0 0 0 0 0 255 0"/>
<feOffset dx="-1" dy="-1"/>
<feGaussianBlur stdDeviation="1"/>
<feColorMatrix type="matrix" values="0 0 0 0 1 0 0 0 0 1 0 0 0 0 1 0 0 0 0.4 0"/>
<feBlend mode="normal" in2="BackgroundImageFix" result="effect1_dropShadow"/>
<feColorMatrix in="SourceAlpha" type="matrix" values="0 0 0 0 0 0 0 0 0 0 0 0 0 0 0 0 0 0 255 0"/>
<feOffset dy="4"/>
<feGaussianBlur stdDeviation="2"/>
<feColorMatrix type="matrix" values="0 0 0 0 0 0 0 0 0 0 0 0 0 0 0 0 0 0 0.25 0"/>
<feBlend mode="normal" in2="effect1_dropShadow" result="effect2_dropShadow"/>
<feBlend mode="normal" in="SourceGraphic" in2="effect2_dropShadow" result="shape"/>
</filter>
<filter id="filter3_dd" x="24.0289" y="196.428" width="101.05" height="32.6397" filterUnits="userSpaceOnUse" color-interpolation-filters="sRGB">
<feFlood flood-opacity="0" result="BackgroundImageFix"/>
<feColorMatrix in="SourceAlpha" type="matrix" values="0 0 0 0 0 0 0 0 0 0 0 0 0 0 0 0 0 0 255 0"/>
<feOffset dx="-1" dy="-1"/>
<feGaussianBlur stdDeviation="1"/>
<feColorMatrix type="matrix" values="0 0 0 0 1 0 0 0 0 1 0 0 0 0 1 0 0 0 0.4 0"/>
<feBlend mode="normal" in2="BackgroundImageFix" result="effect1_dropShadow"/>
<feColorMatrix in="SourceAlpha" type="matrix" values="0 0 0 0 0 0 0 0 0 0 0 0 0 0 0 0 0 0 255 0"/>
<feOffset dy="4"/>
<feGaussianBlur stdDeviation="2"/>
<feColorMatrix type="matrix" values="0 0 0 0 0 0 0 0 0 0 0 0 0 0 0 0 0 0 0.25 0"/>
<feBlend mode="normal" in2="effect1_dropShadow" result="effect2_dropShadow"/>
<feBlend mode="normal" in="SourceGraphic" in2="effect2_dropShadow" result="shape"/>
</filter>
<linearGradient id="paint0_linear" x2="1" gradientUnits="userSpaceOnUse" gradientTransform="matrix(196 240 -422.4 344.96 334.2 -172.48)">
<stop stop-color="#372700"/>
<stop offset="1" stop-color="#9C7103"/>
</linearGradient>
<clipPath id="clip0">
<rect width="440" height="250" fill="white"/>
</clipPath>
</defs>
</svg>
